^E:\PWR\SEM 4\PAMSI\L4\L4_2_I_3\L4_3\DEBUG\DRZEWO_BIN.OBJ|E:\PWR\SEM 4\PAMSI\L4\L4_2_I_3\L4_3\DEBUG\L4_3.OBJ|E:\PWR\SEM 4\PAMSI\L4\L4_2_I_3\L4_3\DEBUG\L4_3.RES|E:\PWR\SEM 4\PAMSI\L4\L4_2_I_3\L4_3\DEBUG\STDAFX.OBJ
C:\WINDOWS\GLOBALIZATION\SORTING\SORTDEFAULT.NLS
C:\PROGRAM FILES (X86)\WINDOWS KITS\8.1\LIB\WINV6.3\UM\X86\KERNEL32.LIB
C:\PROGRAM FILES (X86)\WINDOWS KITS\8.1\LIB\WINV6.3\UM\X86\USER32.LIB
C:\PROGRAM FILES (X86)\WINDOWS KITS\8.1\LIB\WINV6.3\UM\X86\GDI32.LIB
C:\PROGRAM FILES (X86)\WINDOWS KITS\8.1\LIB\WINV6.3\UM\X86\WINSPOOL.LIB
C:\PROGRAM FILES (X86)\WINDOWS KITS\8.1\LIB\WINV6.3\UM\X86\COMDLG32.LIB
C:\PROGRAM FILES (X86)\WINDOWS KITS\8.1\LIB\WINV6.3\UM\X86\ADVAPI32.LIB
C:\PROGRAM FILES (X86)\WINDOWS KITS\8.1\LIB\WINV6.3\UM\X86\SHELL32.LIB
C:\PROGRAM FILES (X86)\WINDOWS KITS\8.1\LIB\WINV6.3\UM\X86\OLE32.LIB
C:\PROGRAM FILES (X86)\WINDOWS KITS\8.1\LIB\WINV6.3\UM\X86\OLEAUT32.LIB
C:\PROGRAM FILES (X86)\WINDOWS KITS\8.1\LIB\WINV6.3\UM\X86\UUID.LIB
C:\PROGRAM FILES (X86)\WINDOWS KITS\8.1\LIB\WINV6.3\UM\X86\ODBC32.LIB
C:\PROGRAM FILES (X86)\WINDOWS KITS\8.1\LIB\WINV6.3\UM\X86\ODBCCP32.LIB
E:\PWR\SEM 4\PAMSI\L4\L4_2_I_3\L4_3\DEBUG\L4_3.RES
E:\PWR\SEM 4\PAMSI\L4\L4_2_I_3\L4_3\DEBUG\DRZEWO_BIN.OBJ
E:\PWR\SEM 4\PAMSI\L4\L4_2_I_3\L4_3\DEBUG\L4_3.OBJ
E:\PWR\SEM 4\PAMSI\L4\L4_2_I_3\L4_3\DEBUG\STDAFX.OBJ
C:\WINDOWS\SYSTEM32\TZRES.DLL
F:\PROGRAMY\VISUAL 2015\VC\LIB\MSVCRTD.LIB
F:\PROGRAMY\VISUAL 2015\VC\LIB\OLDNAMES.LIB
F:\PROGRAMY\VISUAL 2015\VC\LIB\MSVCPRTD.LIB
F:\PROGRAMY\VISUAL 2015\VC\LIB\VCRUNTIMED.LIB
C:\PROGRAM FILES (X86)\WINDOWS KITS\10\LIB\10.0.10240.0\UCRT\X86\UCRTD.LIB
C:\PROGRAM FILES (X86)\WINDOWS KITS\8.1\BIN\X86\RC.EXE
F:\PROGRAMY\VISUAL 2015\VC\BIN\CVTRES.EXE
^E:\PWR\SEM 4\PAMSI\L4\PAMSI_SRODA_ALESANDER_PAWLAK_LAB4\L4_2_I_3\L4_3\DEBUG\DRZEWO_BIN.OBJ|E:\PWR\SEM 4\PAMSI\L4\PAMSI_SRODA_ALESANDER_PAWLAK_LAB4\L4_2_I_3\L4_3\DEBUG\L4_3.OBJ|E:\PWR\SEM 4\PAMSI\L4\PAMSI_SRODA_ALESANDER_PAWLAK_LAB4\L4_2_I_3\L4_3\DEBUG\L4_3.RES|E:\PWR\SEM 4\PAMSI\L4\PAMSI_SRODA_ALESANDER_PAWLAK_LAB4\L4_2_I_3\L4_3\DEBUG\STDAFX.OBJ
C:\WINDOWS\GLOBALIZATION\SORTING\SORTDEFAULT.NLS
C:\PROGRAM FILES (X86)\WINDOWS KITS\8.1\LIB\WINV6.3\UM\X86\KERNEL32.LIB
C:\PROGRAM FILES (X86)\WINDOWS KITS\8.1\LIB\WINV6.3\UM\X86\USER32.LIB
C:\PROGRAM FILES (X86)\WINDOWS KITS\8.1\LIB\WINV6.3\UM\X86\GDI32.LIB
C:\PROGRAM FILES (X86)\WINDOWS KITS\8.1\LIB\WINV6.3\UM\X86\WINSPOOL.LIB
C:\PROGRAM FILES (X86)\WINDOWS KITS\8.1\LIB\WINV6.3\UM\X86\COMDLG32.LIB
C:\PROGRAM FILES (X86)\WINDOWS KITS\8.1\LIB\WINV6.3\UM\X86\ADVAPI32.LIB
C:\PROGRAM FILES (X86)\WINDOWS KITS\8.1\LIB\WINV6.3\UM\X86\SHELL32.LIB
C:\PROGRAM FILES (X86)\WINDOWS KITS\8.1\LIB\WINV6.3\UM\X86\OLE32.LIB
C:\PROGRAM FILES (X86)\WINDOWS KITS\8.1\LIB\WINV6.3\UM\X86\OLEAUT32.LIB
C:\PROGRAM FILES (X86)\WINDOWS KITS\8.1\LIB\WINV6.3\UM\X86\UUID.LIB
C:\PROGRAM FILES (X86)\WINDOWS KITS\8.1\LIB\WINV6.3\UM\X86\ODBC32.LIB
C:\PROGRAM FILES (X86)\WINDOWS KITS\8.1\LIB\WINV6.3\UM\X86\ODBCCP32.LIB
E:\PWR\SEM 4\PAMSI\L4\PAMSI_SRODA_ALESANDER_PAWLAK_LAB4\L4_2_I_3\L4_3\DEBUG\L4_3.RES
E:\PWR\SEM 4\PAMSI\L4\PAMSI_SRODA_ALESANDER_PAWLAK_LAB4\L4_2_I_3\L4_3\DEBUG\DRZEWO_BIN.OBJ
E:\PWR\SEM 4\PAMSI\L4\PAMSI_SRODA_ALESANDER_PAWLAK_LAB4\L4_2_I_3\L4_3\DEBUG\L4_3.OBJ
E:\PWR\SEM 4\PAMSI\L4\PAMSI_SRODA_ALESANDER_PAWLAK_LAB4\L4_2_I_3\L4_3\DEBUG\STDAFX.OBJ
C:\WINDOWS\SYSTEM32\TZRES.DLL
F:\PROGRAMY\VISUAL 2015\VC\LIB\MSVCRTD.LIB
F:\PROGRAMY\VISUAL 2015\VC\LIB\OLDNAMES.LIB
F:\PROGRAMY\VISUAL 2015\VC\LIB\MSVCPRTD.LIB
F:\PROGRAMY\VISUAL 2015\VC\LIB\VCRUNTIMED.LIB
C:\PROGRAM FILES (X86)\WINDOWS KITS\10\LIB\10.0.10240.0\UCRT\X86\UCRTD.LIB
