^E:\PWR\SEM 4\PAMSI\L4\L4_3\L4_3\DEBUG\DRZEWO_BIN.OBJ|E:\PWR\SEM 4\PAMSI\L4\L4_3\L4_3\DEBUG\L4_3.OBJ|E:\PWR\SEM 4\PAMSI\L4\L4_3\L4_3\DEBUG\L4_3.RES|E:\PWR\SEM 4\PAMSI\L4\L4_3\L4_3\DEBUG\STDAFX.OBJ
/OUT:"E:\PWR\SEM 4\PAMSI\L4\L4_3\DEBUG\L4_3.EXE" /INCREMENTAL /NOLOGO KERNEL32.LIB USER32.LIB GDI32.LIB WINSPOOL.LIB COMDLG32.LIB ADVAPI32.LIB SHELL32.LIB OLE32.LIB OLEAUT32.LIB UUID.LIB ODBC32.LIB ODBCCP32.LIB /MANIFEST /MANIFESTUAC:"level='asInvoker' uiAccess='false'" /manifest:embed /DEBUG /PDB:"E:\PWR\SEM 4\PAMSI\L4\L4_3\DEBUG\L4_3.PDB" /SUBSYSTEM:CONSOLE /TLBID:1 /DYNAMICBASE /NXCOMPAT /IMPLIB:"E:\PWR\SEM 4\PAMSI\L4\L4_3\DEBUG\L4_3.LIB" /MACHINE:X86 DEBUG\L4_3.RESDEBUG\DRZEWO_BIN.OBJDEBUG\L4_3.OBJDEBUG\STDAFX.OBJ
^E:\PWR\SEM 4\PAMSI\L4\L4_2_I_3\L4_3\DEBUG\DRZEWO_BIN.OBJ|E:\PWR\SEM 4\PAMSI\L4\L4_2_I_3\L4_3\DEBUG\L4_3.OBJ|E:\PWR\SEM 4\PAMSI\L4\L4_2_I_3\L4_3\DEBUG\L4_3.RES|E:\PWR\SEM 4\PAMSI\L4\L4_2_I_3\L4_3\DEBUG\STDAFX.OBJ
/OUT:"E:\PWR\SEM 4\PAMSI\L4\L4_2_I_3\DEBUG\L4_3.EXE" /INCREMENTAL /NOLOGO KERNEL32.LIB USER32.LIB GDI32.LIB WINSPOOL.LIB COMDLG32.LIB ADVAPI32.LIB SHELL32.LIB OLE32.LIB OLEAUT32.LIB UUID.LIB ODBC32.LIB ODBCCP32.LIB /MANIFEST /MANIFESTUAC:"level='asInvoker' uiAccess='false'" /manifest:embed /DEBUG /PDB:"E:\PWR\SEM 4\PAMSI\L4\L4_2_I_3\DEBUG\L4_3.PDB" /SUBSYSTEM:CONSOLE /TLBID:1 /DYNAMICBASE /NXCOMPAT /IMPLIB:"E:\PWR\SEM 4\PAMSI\L4\L4_2_I_3\DEBUG\L4_3.LIB" /MACHINE:X86 DEBUG\L4_3.RESDEBUG\DRZEWO_BIN.OBJDEBUG\L4_3.OBJDEBUG\STDAFX.OBJ
^E:\PWR\SEM 4\PAMSI\L4\PAMSI_SRODA_ALESANDER_PAWLAK_LAB4\L4_2_I_3\L4_3\DEBUG\DRZEWO_BIN.OBJ|E:\PWR\SEM 4\PAMSI\L4\PAMSI_SRODA_ALESANDER_PAWLAK_LAB4\L4_2_I_3\L4_3\DEBUG\L4_3.OBJ|E:\PWR\SEM 4\PAMSI\L4\PAMSI_SRODA_ALESANDER_PAWLAK_LAB4\L4_2_I_3\L4_3\DEBUG\L4_3.RES|E:\PWR\SEM 4\PAMSI\L4\PAMSI_SRODA_ALESANDER_PAWLAK_LAB4\L4_2_I_3\L4_3\DEBUG\STDAFX.OBJ
/OUT:"E:\PWR\SEM 4\PAMSI\L4\PAMSI_SRODA_ALESANDER_PAWLAK_LAB4\L4_2_I_3\DEBUG\L4_3.EXE" /INCREMENTAL /NOLOGO KERNEL32.LIB USER32.LIB GDI32.LIB WINSPOOL.LIB COMDLG32.LIB ADVAPI32.LIB SHELL32.LIB OLE32.LIB OLEAUT32.LIB UUID.LIB ODBC32.LIB ODBCCP32.LIB /MANIFEST /MANIFESTUAC:"level='asInvoker' uiAccess='false'" /manifest:embed /DEBUG /PDB:"E:\PWR\SEM 4\PAMSI\L4\PAMSI_SRODA_ALESANDER_PAWLAK_LAB4\L4_2_I_3\DEBUG\L4_3.PDB" /SUBSYSTEM:CONSOLE /TLBID:1 /DYNAMICBASE /NXCOMPAT /IMPLIB:"E:\PWR\SEM 4\PAMSI\L4\PAMSI_SRODA_ALESANDER_PAWLAK_LAB4\L4_2_I_3\DEBUG\L4_3.LIB" /MACHINE:X86 DEBUG\L4_3.RESDEBUG\DRZEWO_BIN.OBJDEBUG\L4_3.OBJDEBUG\STDAFX.OBJ
